id; text
7;#NationalVoterRegistrationDay
12;#VoterRegistrationDay
12;#MakeAmericaGreatAgain
14;#MAGA
16;#ImWithYou
17;#MAGA
19;#NationalVoterRegistrationDay
20;#LoveTrumpsHate
30;#NationalVoterRegistrationDay
31;#NationalVoterRegistrationDay
32;#Debates2016
32;#NationalVoterRegistrationDay
34;#MAGA
35;#SheWon
36;#iRegistered
39;#NationalVoterRegistrationDay
40;#SheWon
41;#AmericaFirst
41;#MAGA
41;#ImWithYou
42;#NationalVoterRegistrationDay
45;#SheWon
47;#SheWon
48;#TrumpWon
48;#MAGA
52;#TrumpWon
56;#SheWon
59;#DebateNight
60;#MAGA
61;#DebateNight
61;#ImWithYou
62;#DebateNight
62;#AmericaFirst
62;#MAGA
64;#debatenight
66;#DebateNight
67;#AmericaFirst
67;#Debates2016
68;#AmericaFirst
69;#Debates2016
69;#MAGA
70;#debatenight
71;#DebateNight
73;#ImWithHer
74;#debatenight
77;#debatenight
78;#debatenight
80;#DebateNight
81;#Benghazi
81;#Debates2016
81;#debatenight
82;#debatenight
83;#debatenight
84;#ISIS
84;#DebateNight
85;#debatenight
87;#DebateNight
89;#debatenight
90;#DebateNight
93;#debate
94;#Debates2016
95;#Debates2016
95;#MAGA
96;#DebateNight
99;#debate
100;#debatenight
102;#DebateNight
103;#DebateNight
105;#Debate
106;#debatenight
107;#DebateNight
108;#debatenight
109;#DebateNight
110;#DebateNight
111;#debatenight
112;#DebateNight
114;#Debates2016
114;#MAGA
115;#debatenight
116;#MAGA
117;#DebateNight
118;#Debates2016
119;#debatenight
121;#debatenight
122;#Debates2016
125;#DebateNight
126;#Debates2016
128;#debate
129;#debatenight
130;#TPP
130;#Debates2016
132;#debatenight
133;#DebateNight
136;#debate
138;#Debates2016
141;#DebateNight
142;#DebateNight
143;#DebateNight
144;#DebateNight
145;#DebateNight
146;#DebateNight
148;#DebateNight
151;#DebateNight
151;#TrumpPence16
153;#DebateNight
154;#DebateNight
160;#DebateNight
161;#Polls
161;#slipping
161;#Debates2016
162;#DebateNight
163;#DebateNight
164;#DebateNight
168;#Debates2016
169;#TrumpTrain
175;#LoveTrumpsHate
199;#LoveTrumpsHate
206;#TrumpTrain
206;#MAGA
209;#DeclareYourAmbition
219;#OpioidAwarenessWeek
223;#TrumpTrain
223;#MAGA
232;#MakeAmericaGreatAgain
242;#ADA
242;#imwithher
242;#CripTheVote
243;#MAGA
255;#MAGA
296;#TerenceCrutcher
299;#UNGA
304;#AmericaFirst
304;#MakeAmericaGreatAgain
305;#AmericaFirst
305;#MakeAmericaGreatAgain
311;#ImWithYou
311;#AmericaFirst
368;#polls
413;#MAGA
459;#AmericaFirst
462;#TheDonald
462;#JimmyFallon
462;#TheTonightShow
462;#TrumpPence16
463;#MyTeacherIsWeird
463;#FallonTonight
484;#HispanicHeritageMonth
504;#MAGA
509;#LESM
509;#MAGA
510;#MAGA
520;#LibrarianOfCongress
521;#MAGA
521;#AmericaFirst
523;#WeTrumpHate
541;#ImWithYou
561;#ImWithYou
561;#AmericaFirst
584;#election2016
609;#MakeAmericaGreatAgain
611;#MakeAmericaGreatAgain
614;#AmericaFirst
614;#MAGA
627;#MAGA
669;#AmericaFirst
677;#AmericaFirst
677;#ImWithYou
679;#LoveTrumpsHate
685;#MakeAmericaGreatAgain
694;#ImWithYou
694;#MAGA
697;#AmericaFirst
697;#TrumpTrain
715;#AmericaFirst
715;#ImWithYou
725;#POTUS
739;#CommanderInChiefForum
745;#NBCNewsForum
749;#NBCNewsForum
750;#NBCNewsForum
751;#NBCNewsForum
753;#NBCNewsForum
757;#NBCNewsForum
758;#NBCNewsForum
759;#NBCNewsForum
760;#NBCNewsForum
761;#NBCNewsForum
763;#NBCNewsForum
770;#AmericaFirst
781;#AmericaFirst
781;#MAGA
786;#media
791;#VoteTrump
791;#MakeAmericaGreatAgain
797;#ImWithYou
810;#VoteTrump
811;#VoteTrump
811;#ImWithYou
816;#AmericaFirst
825;#AmericaFirst
830;#LaborDay
831;#AmericaFirst
834;#LaborDay
834;#AmericaFirst
836;#MAGA
871;#MakeAmericaGreatAgain
871;#ImWithYou
877;#MAGA
892;#ImWithYou
900;#ALConvention2016
906;#AmericaFirst
906;#ImWithYou
907;#AmericaFirst
908;#MakeAmericaGreatAgain
908;#ImWithYouhttps
909;#MakeAmericaGreatAgain
909;#ImWithYouhttps
910;#TrumpPence16
917;#ImWithYou
947;#ImWithYou
947;#AmericaFirst
950;#TrumpinEverett
953;#MAGA
957;#MAGA
970;#ImWithYou
971;#ImWithYou
974;#Obamacare
979;#RIP
979;#JuanGabriel
979;#DivoDeJuarez
997;#GoodTrouble
1003;#VoteTrump
1005;#TrumpPence2016
1005;#NeverHillary
1007;#StrongerTogether
1009;#ImWithYou
1012;#StrongerTogether
1017;#BlackMenForBernie
1017;#Hillary2016
1017;#BlacksForTrump
1020;#ImWithYou
1021;#AmericaFirst
1021;#TrumpPence16
1022;#ImWithYou
1024;#MakeAmericaGreatAgain
1025;#Enjoy
1028;#WomensEqualityDay
1032;#CrookedHillary
1037;#WomensEqualityDay
1041;#WomensEqualityDay
1051;#FlashbackFriday
1057;#NPS100
1064;#CrookedHillary
1103;#NPS100
1106;#brexit
1106;#MAGA
1111;#Hannity
1111;#BuildTheWall
1113;#AmericaFirst
1113;#ImWithYou
1115;#TrumpPence16
1121;#MakeAmericaGreatAgain
1122;#MakeAmericaGreatAgain
1124;#MakeAmericaSafeAgainhttps
1128;#MakeAmericaGreatAgain
1131;#ImWithHer
1133;#Diwali
1135;#BlackWomensEqualPay
1138;#LAflood
1143;#smallbiz
1174;#TeamTrump
1175;#MAGA
1175;#TrumpPence16
1192;#MAGA
1193;#TrumpPence16
1201;#TrumpPence16
1205;#MAGA
1205;#AlwaysTrump
1207;#StandWithLouisiana
1208;#WheresHillary
1214;#TrumpPence16
1216;#WHD
1223;#ImWithYou
1223;#TrumpTrain
1229;#MakeAmericaGreatAgain
1235;#RosanellEaton
1252;#MakeAmericaGreatAgain
1252;#ImWithYouhttps
1255;#Obamacare
1265;#ImWithYou
1266;#MakeAmericaGreatAgain
1266;#ImWithYouhttps
1267;#ImWithYou
1269;#LawandOrder
1269;#ImWithYou
1270;#LawandOrder
1270;#ImWithYou
1272;#MakeAmericaGreatAgain
1280;#Obamacare
1293;#DACA
1298;#extremevetting
1350;#MakeAmericaGreatAgain
1350;#USA
1355;#TrumpTrain
1366;#MakeAmericaGreatAgain
1369;#YouthDay
1370;#MAGA
1387;#TBT
1428;#MakeAmericaGreatAgain
1441;#MakeAmericaGreatAgain
1443;#MAGA
1454;#LESM
1461;#TrumpPence16
1463;#TrumpPence16
1466;#MakeAmericaGreatAgain
1467;#ElectionDay
1467;#DefendtheSecond
1467;#NeverHillary
1468;#SCOTUS
1468;#NeverHillary
1476;#MAGA
1476;#NeverHillary
1490;#MakeAmericaGreatAgain
1496;#taxplan
1496;#smallbiz
1505;#NeverTrump
1519;#ICYMI
1526;#PurpleHeartDay
1528;#ImWithHernandez
1529;#VirWINia
1536;#TrumpPence16
1536;#MAGA
1541;#DemConvention
1542;#RestoreTheVRA
1545;#CrookedHillary
1545;#TrumpPence16
1550;#ugpride2016
1551;#RestoreTheVRA
1556;#TeamUSA
1556;#OpeningCeremony
1556;#Rio2016
1558;#TrumpPence16
1558;#MAGA
1560;#TrumpPence16https
1562;#MAGA
1562;#TrumpTrain
1571;#NABJNAHJ16
1593;#MakeAmericaGreatAgain
1603;#CoastGuardDay
1608;#MAGA
1612;#MakeAmericaGreatAgain
1614;#MAGA
1614;#ImWithYou
1615;#LESM
1615;#MAGA
1616;#MakeAmericaGreatAgain
1645;#ICYMI
1647;#MakeAmericaGreatAgain
1651;#ImWithYou
1653;#DemConvention
1655;#DemConvention
1655;#ImWithHer
1658;#CrookedHillary
1660;#MAGA
1661;#TrumpMovement
1661;#MAGA
1671;#ImWithYou
1671;#MAGA
1673;#ImWithYou
1673;#MAGA
1674;#MakeAmericaGreatAgain
1674;#ImWithYou
1700;#VoterFraud
1700;#MSM
1721;#CrookedHillary
1738;#ImWithHer
1741;#KhizrKhan
1743;#MAGA
1749;#Trump2016
1750;#MakeAmericaGreatAgain
1753;#CrookedHillary
1754;#MakeAmericaGreatAgain
1754;#LESM
1771;#TrumpPence16
1777;#NeverHillary
1779;#NeverHillary
1844;#StrongerTogether
1876;#DemConvention
1883;#DemsInPhilly
1885;#DemsInPhilly
1886;#DemConvention
1886;#DemsInPhilly
1890;#TBT
1890;#MAGA
1897;#DemsInPhilly
1898;#MAGA
1902;#DNC
1906;#NATO
1906;#DemsInPhilly
1988;#DemsInPhilly
1999;#StopGunViolence
2000;#MakeAmericaGreatAgainhttps
2002;#enough
2002;#ImWithHer
2005;#DemsInPhilly
2007;#LGBT
2007;#Pulse
2008;#DemsInPhilly
2009;#DemsInPhilly
2010;#DemsInPhilly
2012;#DemsInPhilly
2014;#DemsinPhilly
2014;#DNCinPHL
2016;#DemsInPhilly
2020;#MakeAmericaGreatAgain
2021;#DemsInPhilly
2022;#DemConvention
2026;#MAGA
2033;#MakeAmericaGreatAgain
2038;#DemsInPHL
2048;#StrongerTogether
2048;#DemsinPhilly
2073;#DemConvention
2078;#DemsInPhilly
2083;#DemsInPhilly
2091;#WeMadeHistory
2096;#RollCallVote
2097;#RollCallVote
2098;#WeMadeHistory
2099;#ImWithHer
2099;#DemsInPhilly
2103;#DemsInPhilly
2104;#DemsInPhilly
2105;#DemsInPhilly
2106;#WeMadeHistory
2111;#DemConvention
2112;#DemsinPHL
2113;#MakeAmericaGreatAgain
2114;#TrumpPence16
2114;#MAGA
2115;#TrumpPence16
2115;#MAGA
2116;#DemsInPHL
2117;#DemsInPHL
2123;#DemsInPhilly
2124;#DemsInPhilly
2129;#DemsInPhilly
2131;#DemsInPhilly
2134;#DemsInPhilly
2135;#DemsInPhilly
2136;#DemsInPhilly
2139;#DemsInPhilly
2140;#DemsInPhilly
2141;#DemsInPhilly
2144;#DemsInPhilly
2147;#DemsInPhilly
2148;#DemConvention
2149;#DemsInPhilly
2151;#DemsInPhilly
2152;#DemsInPhilly
2154;#DemsInPhilly
2157;#DemsInPhilly
2160;#DemConvention
2161;#DemsInPhilly
2162;#DemsInPhilly
2163;#DemsInPhilly
2164;#DemsInPhilly
2168;#DemsInPhilly
2170;#DemConvention
2171;#DemsInPhilly
2172;#DemsInPhilly
2173;#DemsInPhilly
2174;#DemsInPhilly
2179;#DemsInPhilly
2180;#DemsInPhilly
2181;#DemsInPhilly
2184;#DemsInPhilly
2185;#DemsInPhilly
2185;#LoveTrumpsHate
2186;#DemsInPhilly
2189;#DemConvention
2192;#TrumpPence16
2193;#TrumpPence16
2194;#LGBT
2195;#DemConvention
2196;#DemConvention
2198;#TrumpPence16
2213;#MAGA
2219;#MakeAmericaGreatAgain
2253;#RNCinCLE
2255;#HillaryKaine2016
2260;#ClintonKaine
2290;#ImWithHer
2292;#StrongerTogether
2303;#MakeAmericaSafeAgain
2309;#ClintonKaine
2309;#ImWithHer
2316;#VirWINia
2341;#RNCinCLE
2350;#RNCinCLE
2352;#TrumpPence16
2359;#RNCInCLE
2361;#RNCwithBernie
2363;#RNCinCLE
2364;#RNCinCLE
2365;#RNCinCLE
2367;#RNCinCLE
2370;#RNCInCLE
2371;#RNCInCLE
2374;#RNCinCLE
2374;#TrumpIsWithYou
2374;#MakeAmericaGreatAgain
2375;#RNCinCLE
2377;#RNCinCLE
2378;#RNCinCLE
2382;#NATO
2382;#StandTogether
2383;#TrumpYourself
2385;#RNCinCLE
2389;#RNCinCLE
2391;#RNCinCLE
2391;#TrumpPence2016
2392;#TrumpYourself
2393;#TrumpYourself
2395;#RNCinCLE
2396;#TrumpYourself
2401;#RNCinCLE
2402;#AmericaFirst
2402;#RNCinCLE
2406;#GOPinCLE
2409;#RNCinCLE
2411;#RNCinCLE
2412;#RNCinCLE
2413;#RNCinCLE
2416;#RNCinCLE
2417;#AmericaFirst
2417;#RNCinCLEhttps
2418;#RNCinCLE
2420;#RNCinCLE
2421;#RNCINCLE
2422;#AmericaFirst
2422;#RNCinCLE
2423;#RNCinCLE
2424;#RNCinCLEhttps
2425;#RNCinCLE
2427;#AmericaFirst
2429;#RNCinCLE
2430;#GOPConvention
2430;#AmericaFirst
2430;#RNCinCLE
2437;#CitizensUnited
2438;#RNCinCLE
2450;#RNCinCLE
2452;#RNCinCLE
2453;#RNCinCLE
2454;#RNCinCLE
2456;#RNCinCLE
2457;#RNCinCLE
2458;#RNCinCLE
2460;#RNCinCLE
2461;#RNCinCLE
2463;#RNCinCLE
2464;#RNCinCLE
2465;#RNCinCLE
2473;#RNCinCLE
2486;#GOPConvention
2487;#RNCinCLE
2488;#RNCinCLE
2491;#RNCinCLE
2492;#RNCinCLE
2495;#RNCinCLE
2496;#RNCinCLE
2499;#RNCinCLE
2500;#GOPConvention
2500;#RNCinCLE
2501;#RNCinCLE
2504;#RNCinCLE
2511;#StrongerTogether
2515;#MakeAmericaSafeAgain
2529;#AIDSFreeGeneration
2532;#RNCinCLE
2560;#campaignfinance
2560;#CitizensUnited
2562;#TrumpPence16
2566;#ImWithHer
2576;#Turkey
2577;#MikePence
2591;#NeverTrump
2600;#JuntosSePuede
2602;#IranDeal
2618;#ImWithYou
2619;#Trump2016
2619;#ImWithYou
2625;#fixdemocracyfirst)
2632;#CrookedHillary
2639;#CrookedHillary
2660;#ImWithHer
2660;#FeelTheBern
2664;#CrookedHillary
2664;#ImWithYou
2665;#ImWithYou
2667;#Trump2016
2670;#NAACP107
2672;#Trump2016
2672;#ImWithYou
2674;#WORK
2675;#CrookedHillary
2681;#CrookedHillary
2711;#Orlando
2711;#StoptheHate
2715;#ImWithYou
2728;#NeverForget
2728;#Srebrenica
2733;#Trump2016
2746;#Trump2016
2748;#Wimbledon
2774;#TBT
2779;#AmericaFirst
2779;#Trump2016
2780;#Trump2016
2784;#PhilandoCastile
2786;#Trump2016
2786;#AmericaFirst
2789;#Frozen
2862;#FirstInPOTUS
2866;#RiggedSystem
2882;#Trump2016
2882;#AmericaFirst
2906;#ImWithYou
2907;#AmericaFirst
2907;#LeadRight2016
2909;#AmericaFirst
2910;#AmericaFirst
2911;#ImWithYou
2911;#AmericaFirst
2915;#ImWithYou
2915;#AmericaFirst
2918;#ImWithYou
2918;#WCS16
2920;#ImWithYou
2920;#AmericaFirst
2922;#AmericaFirst
2926;#makersandtakers
2932;#TBT
2940;#StoptheHate
2947;#WakeUpAmerica
2972;#Trump2016
2978;#CreatorsAskHRC
2981;#CreatorsAskHRC
2989;#CrookedHillary
2989;#Trump2016
2991;#POTUS
2992;#UPUPUP
2994;#Trump
3007;#SCOTUS
3012;#TurnUpToVote
3031;#OHHillYes
3040;#Trump2016
3040;#MAGA
3041;#dtmag
3044;#CrookedHillary
3055;#USMC2016
3056;#ImWithHer
3057;#NYCPride
3067;#DemPlatform
3068;#DemPlatform
3069;#DemPlatform
3070;#DemPlatform
3077;#AmericaFirst
3087;#WestVirginia
3090;#ImWithYou
3100;#BrexitVote
3101;#Brexit
3102;#BrexitVote
3104;#BrexitVote
3105;#BrexitVote
3120;#DemocraticSitIn
3121;#imwithyou
3124;#TitleIX
3125;#Trump
3125;#Clinton
3129;#Imwithyou
3132;#CrookedHillary
3134;#SCOTUS
3135;#NoBillNoBreak
3139;#NoBillNoBreak
3140;#gunviolence
3140;#sitin
3140;#AsLongAsItTakes
3140;#NoBillNoBreak
3140;#NoMoreSilence
3141;#NoBillNoBreak
3142;#DisarmHate
3142;#sitin
3142;#EndGunViolence
3144;#NotOneMore
3145;#NoBillNoBreak
3146;#NoBillNoBreak
3147;#NoBillNoBreak
3147;#holdthefloor
3147;#NoMoreSilence
3148;#goodtrouble
3148;#NoBillNoBreak
3151;#Olmstead
3156;#GIBill
3156;#veterans
3157;#MoreInCommon
3166;#Imwithyou
3223;#DisarmHate
3225;#DisarmHate
3226;#WorldRefugeeDay
3247;#MakeAmericaGreatAgain
3250;#Trump2016
3251;#Trump2016
3252;#Trump2016
3252;#AmericaFirst
3253;#LaudatoSi
3257;#Trump2016
3257;#AmericaFirst
3258;#Trump2016
3258;#AmericaFirst
3261;#Trump2016
3261;#AmericaFirst
3265;#AmericaFirst
3265;#Trump2016
3267;#AmericaFirst
3271;#Trump2016
3271;#AmericaFirst
3272;#Charleston9
3276;#AmericaFirst
3278;#TrumpDallas
3284;#Trump
3300;#Trump2016
3301;#ShesWithUs
3308;#OrlandoUnited
3308;#Enough
3308;#Filibuster
3313;#AmericaFirst
3313;#Trump2016
3314;#AmericaFirst
3324;#AmericaFirst
3327;#OrlandoUnited
3331;#ArmyBDay
3338;#NetNeutrality
3362;#Trump2016
3374;#StanleyCup
3413;#Trump2016
3413;#AmericaFirst
3414;#AmericaFirst
3416;#AmericaFirst
3417;#AmericaFirst
3417;#TrumpTrain
3422;#MakeAmericaGreatAgain
3425;#Trump2016
3432;#RTM2016
3432;#Trump2016
3434;#Trump2016
3446;#Trump2016
3462;#Trump2016
3475;#WIBackHer
3498;#ImWithHer
3499;#AmericaFirst
3499;#Trump2016
3501;#HistoryMade
3505;#ImWithHer
3520;#Trump2016
3521;#ImWithHer
3523;#Trump2016
3524;#Trump2016
3525;#Trump2016
3527;#Trump2016
3530;#ImWithHer
3553;#MakeAmericaGreatAgain
3557;#CAPrimary
3573;#DDay
3577;#DDay
3594;#Decision2016
3596;#POTUS
3596;#Elkhart
3596;#MakeAmericaGreatAgain
3613;#VoteTrump2016
3613;#TrumpTrain
3620;#MakeAmericaGreatAgain
3620;#CAPrimary
3630;#ImWithHer
3641;#Women4Ttump
3641;#Trump2016
3648;#Trump2016
3657;#MAGA
3657;#TRUMP2016
3660;#GunViolence
3673;#SaveElephants
3680;#MakeAmericaGreatAgain
3680;#Trump2016Tickets
3686;#Teachers4Trump
3686;#CA4Trump
3686;#NeverDems
3688;#MakeAmericaGreatAgain
3691;#Caribbean
3698;#MakeAmericaGreatAgain
3698;#Trump2016https
3724;#Trump2016
3734;#UnderstandSlavery
3745;#MemorialDay
3749;#TRUMP
3751;#Trump2016
3764;#MDW
3772;#Trump2016
3777;#Trump2016
3781;#Trump2016
3784;#MakeAmericaGreatAgain
3784;#Trump2016https
3787;#TBT
3792;#MeetTheTrumps
3792;#Trump2016
3794;#Trump2016
3795;#Trump2016
3798;#SallyRideDay
3808;#UAW
3810;#Trump2016
3811;#ActOnClimate
3832;#TrumpTrain
3832;#MakeAmericaGreatAgain
3836;#Trump2016
3836;#MakeAmericaGreatAgain
3838;#Trump2016
3883;#Trump2016
3888;#Trump2016
3888;#MAGA
3899;#StopGunViolence
3900;#ArmedForcesDay
3906;#TrumpTrain
3917;#ImWithHer
3918;#Trump2016
3920;#MakeAmericaGreatAgain
3920;#Trump2016
3923;#Trump2016
3924;#MichaelBrown
3924;#MothersoftheMovement
3924;#ChangeAgents
3930;#SecondAmendment
3945;#TBT
3947;#SayHerName
3976;#Trump2016
3977;#MakeAmericaGreatAgain
3986;#AmericaFIRST
3988;#Trump2016
3988;#MakeAmericaGreatAgain
3990;#MakeAmericaGreatAgain
4006;#MegynKellyPresents
4011;#MakeAmericaGreatAgain
4020;#Trump
4041;#VoteTrump
4041;#ORPrimary
4054;#MadeInAmerica
4060;#SCOTUS
4074;#MakeAmericaGreatAgain
4074;#Trump2016
4077;#Trump2016
4084;#Trump2016
4110;#TBT
4111;#InternationalNursesDay
4115;#Trump2016
4117;#Trump2016
4121;#TBT
4133;#WashingtonDC
4133;#Statehood
4152;#MakeAmericaGreatAgain
4152;#Trump2016
4154;#MakeAmericaGreatAgain
4154;#Trump2016
4159;#Trump2016
4161;#Trump2016
4171;#VoteTrump
4171;#MakeAmericaGreatAgain
4171;#Trump2016https
4172;#VoteTrump
4172;#MakeAmericaGreatAgain
4172;#Trump2016https
4179;#RepMikeKelly
4207;#MattSchlapp
4207;#jenniferrubin
4207;#GOP
4213;#MothersDay
4221;#MadeForHistory
4225;#KentuckyDerby
4251;#MakeAmericaGreatAgain
4251;#TrumpTrain
4255;#Trump2016
4262;#Trump2016
4262;#MakeAmericaGreatAgain
4270;#CincoDeMayo
4274;#SmallBizWeek
4288;#ThanksObama
4308;#TeacherAppreciationDay
4309;#Trump2016
4309;#MakeAmericaGreatAgain
4326;#INPrimary
4326;#VoteTrump
4328;#INPrimary
4328;#Trump2016
4328;#VoteTrump
4331;#Trump2016
4332;#Trump2016
4332;#VoteTrump
4333;#INPrimary
4333;#VoteTrump
4335;#INPrimary
4335;#VoteTrumphttps
4336;#VoteTrump
4336;#INPrimary
4340;#INPrimary
4341;#MakeAmericaGreatAgain
4343;#VoteTrump
4343;#INPrimary
4343;#MakeAmericaGreatAgain
4345;#INPrimary
4345;#Trump2016
4348;#Trump2016
4348;#MakeAmericaGreatAgain
4367;#INPrimary
4368;#Trump2016
4368;#INPrimary
4369;#MakeAmericaGreatAgain
4370;#APAHM
4373;#WHCD
4375;#FNS
4379;#MayDay
4380;#Trump2016
4382;#WomanCard
4384;#WomanCard
4385;#Trump2016
4385;#MAGA
4387;#LoveTrumpsHate
4392;#WomanCard
4393;#HillaryOnCNN
4394;#WomanCard
4400;#Trump2016
4405;#Trump2016
4408;#WomanCard
4409;#WomanCard
4410;#INDPrimary
4412;#Trump
4416;#MakeAmericaGreatAgain
4417;#TBT
4418;#TBThttps
4437;#Trump2016
4438;#Indiana
4439;#MakeAmericaGreatAgain
4443;#WomanCard
4448;#womancard
4458;#ImWithHer
4481;#Trump2016
4485;#Trump2016
4486;#Trump2016
4487;#Trump2016
4488;#Trump2016
4494;#Trump2016
4497;#MakeAmericaGreatAgain
4497;#VoteTrump
4498;#VoteTrump
4499;#VoteTrump
4500;#VoteTrump
4501;#VoteTrump
4508;#EstoyConElla
4510;#Trump2016
4515;#MSNBCTownhall
4516;#MakeAmericaGreatAgain
4516;#Trump2016
4517;#MSNBCTownhall
4518;#CTPrimary
4518;#DEPrimary
4518;#MDPrimary
4518;#PAPrimary
4518;#RIPrimaryhttps
4521;#EstoyConElla
4522;#MakeAmericaGreatAgain
4523;#PAPrimary
4523;#VoteTrumphttps
4524;#RIPrimary
4524;#VoteTrump
4545;#NYPrimary
4545;#GOP
4555;#Trump2016
4555;#MakeAmericaGreatAgain
4555;#TrumpTrainhttps
4556;#MakeAmericaGreatAgain
4556;#Trump2016https
4558;#MakeAmericaGreatAgain
4558;#Trump2016https
4560;#MakeAmericaGreatAgain
4564;#Trump2016
4566;#Trump2016
4567;#MakeAmericaGreatAgain
4567;#Trump2016https
4568;#Trump2016
4568;#MakeAmericaGreatAgain
4569;#EarthDay
4573;#ActOnClimate
4575;#MakeAmericaGreatAgain
4575;#Trump2016https
4583;#Prince
4583;#HillaryClinton
4590;#StopGunViolence
4592;#TBT
4592;#HillaryOnGMA
4595;#Trump2016
4600;#Trump2016
4600;#MakeAmericaGreatAgain
4606;#Trump360
4607;#Trump2016
4629;#MakeAmericaGreatAgain
4629;#Trump2016
4632;#TrumpTrain
4632;#Trump2016
4632;#MakeAmericaGreatAgain
4633;#PrimaryDay
4634;#MakeAmericaGreatAgain
4637;#Trump2016
4637;#MakeAmericaGreatAgainhttps
4639;#PrimaryDay
4640;#NewYorkValues
4640;#NYPrimary
4640;#VoteTrump
4641;#POTUS
4641;#Trump2016
4641;#VoteTrumpNY
4641;#PrimaryDay
4645;#MakeAmericaGreatAgainWatch
4646;#ICYMI
4646;#Trump2016
4647;#PrimaryDay
4648;#PrimaryDay
4649;#Trump2016
4649;#MakeAmericaGreatAgainTickets
4650;#iVoted
4650;#PrimaryDay
4657;#NYPrimary
4658;#FightForFamilies
4660;#EastVillage
4661;#LSSC
4666;#FightForFamilies
4670;#HoustonFlood
4672;#FightForFamilies
4680;#NewYorkValues
4682;#MakeAmericaGreatAgain
4687;#HRC4PA
4694;#MakeAmericaGreatAgain
4694;#Trump2016
4695;#NYPrimary
4695;#TrumpTrainhttps
4696;#Trump2016
4697;#VoteTrumpNY
4697;#MakeAmericaGreatAgain
4699;#Trump2016
4699;#presidenttrump
4699;#primary
4701;#NYPrimary
4702;#NYPrimary
4703;#ICYMI
4709;#NYPrimary
4709;#Trump2016
4710;#Trump2016
4711;#Trump2016
4713;#NYPrimary
4713;#Trump2016
4714;#MakeAmericaGreatAgain
4714;#Trump2016
4718;#Trump2016
4719;#Trump2016
4719;#TrumpTrain
4721;#NewYorkValues
4722;#MakeAmericaGreatAgain
4722;#Trump2016
4723;#Trump2016
4723;#MakeAmericaGreatAgain
4724;#Trump2016
4724;#NewYorkValues
4725;#MakeAmericaGreatAgain
4725;#Trump2016https
4726;#Trump2016
4726;#NYPrimaryTickets
4727;#Trump2016
4727;#TrumpTrain
4735;#TrumpTrain
4744;#MakeAmericaGreatAgain
4744;#Trump2016
4744;#TrumpTrain
4748;#MakeAmericaGreatAgain
4754;#NewYorkValues
4759;#MakeAmericaGreatAgain
4759;#trump2016
4761;#MAKEAMERICAGREATAGAIN
4764;#HaileyPuckett
4771;#WakeUpAmerica
4772;#NewDay
4772;#MakeAmericaGreatAgain
4778;#MakeAmericaGreatAgain
4784;#WIPrimary
4784;#Trump2016
4784;#MAGAhttps
4786;#Wisconsin
4786;#MakeAmericaGreatAgain
4786;#TrumpTrain
4790;#DonaldTrump
4792;#WIPrimary
4792;#Trump2016
4794;#Trump2016
4794;#WIPrimary
4796;#Wisconsin
4798;#Trump2016
4798;#WIPrimary
4801;#VoteTrumpWI
4801;#WIPrimary
4802;#MakeAmericaGreatAgain
4802;#Trump2016
4803;#WIPrimary
4803;#Trump2016
4804;#MakeAmericaGreatAgain
4804;#Trump2016https
4805;#MakeAmericaGreatAgain
4805;#Trump2016
4806;#Trump2016
4807;#Trump2016
4807;#WIPrimary
4808;#MakeAmericaGreatAgain
4808;#Trump2016
4809;#WISCONSIN
4813;#VoteTrump
4814;#Trump2016
4815;#Racine
4815;#Wausau
4815;#EauClaire
4815;#TrumpTrain
4818;#JohnRyder
4819;#WIPrimary
4819;#Trump2016
4827;#WIPrimary
4827;#Trump2016
4832;#Trump2016
4833;#Trump2016
4833;#MakeAmericaGreatAgain
4834;#VoteTrump
4834;#WIPrimaryhttps
4836;#Trump2016
4839;#WIPrimary
4839;#Trump2016
4840;#MakeAmericaGreatAgain
4840;#Trump2016
4841;#MakeAmericaGreatAgain
4841;#Trump2016https
4845;#Trump2016
4847;#MakeAmericaGreatAgain
4868;#WIPrimary
4868;#MakeAmericaGreatAgain
4885;#WOMEN4TRUMP
4891;#LyingTed
4904;#VoteTrump2016
4913;#LyingTed
4913;#NeverCruz
4916;#Trump2016
4925;#Trump2016
4925;#MakeAmericaGreatAgain
4925;#TrumpTrainhttps
4929;#Trump2016
4929;#WesternTuesday
4929;#TrumpTrain
4932;#POTUS
4934;#UtahCaucus
4934;#UTCaucus
4934;#MakeAmericaGreatAgain
4934;#Trump2016https
4935;#ArizonaPrimary
4935;#AZPrimary
4935;#MakeAmericaGreatAgain
4935;#Trump2016
4936;#VoteTrump
4936;#AZPrimary
4936;#ArizonaPrimary
4936;#UtahCaucus
4936;#UTCaucus
4936;#AmericanSamoa
4937;#Brussels
4939;#Arizona
4943;#AIPAC2016
4955;#VoteTrump
4955;#AZPrimary
4955;#MakeAmericaGreatAgain
4955;#Trump2016
4956;#VoteTrump
4956;#MakeAmericaGreatAgain
4957;#MakeAmericaGreatAgain
4958;#MakeAmericaGreatAgain
4959;#WattersWorld
4959;#Trump2016
4960;#VoteTrump
4960;#MakeAmericaGreatAgain
4962;#MakeAmericaGreatAgain
4962;#Trump2016
4965;#TrumpCountry
4965;#Utah
4965;#Mormon
4965;#UtahPrimary
4965;#Utah4Trump
4967;#Utah
4969;#voteTrump
4970;#Trump
4971;#Trump2016
4972;#AZ
4972;#UT
4975;#MakeAmericaGreatAgain
4975;#Trump2016
4976;#Trump2016
4979;#Trump2016
4979;#MakeAmericaGreatAgain
4987;#MakeAmericaGreatAgain
4987;#Trump2016
4988;#Trump2016
4988;#MakeAmericaGreatAgain
4999;#MakeAmericaGreatAgain
4999;#Trump2016https
5014;#Trump2016
5030;#MakeAmericaGreatAgain
5033;#SuperTuesday
5033;#MakeAmericaGreatAgain
5033;#Trump2016
5034;#Trump2016
5034;#SuperTuesday
5034;#MakeAmericaGreatAgain
5036;#SuperTuesday
5036;#MakeAmericaGreatAgain
5036;#Trump2016
5037;#Trump2016
5037;#MakeAmericaGreatAgain
5044;#CNN
5053;#SuperTuesday
5053;#VoteTrump
5054;#VoteTrump
5054;#SuperTuesday
5060;#GO
5064;#MakeAmericaGreatAgain
5065;#VoteTrump
5065;#Trump2016
5066;#MakeAmericaGreatAgain
5068;#VoteTrump
5070;#VoteTrump
5071;#VoteTrump
5072;#TrumpTrain
5085;#EndCommonCore
5085;#Trump2016
5091;#MakeAmericaGreatAgain
5091;#Trump2016
5092;#MakeAmericaGreatAgain
5092;#Trump2016
5099;#VoteTrump
5099;#Trump2016
5100;#Trump2016
5101;#MakeAmericaGreatAgain
5101;#Trump2016https
5109;#GOPDebate
5110;#NeverTrump
5111;#Trump2016
5111;#MakeAmericaGreatAgain
5112;#GOPDebate
5113;#Donald
5115;#LightweightSenatorMarcoRubio
5116;#MakeAmericaGreatAgain
5116;#Trump2016
5118;#Trump2016
5120;#TrumpTrain
5120;#Trump2016
5121;#Trump2016
5122;#Trump2016
5123;#Trump2016
5124;#Trump2016
5127;#TrumpWaikiki
5127;#Mahalo
5128;#Mediafraud
5144;#MSPrimary
5155;#TrumpTrain
5163;#Trump2016
5164;#MakeAmericaGreatAgain
5167;#Trump2016
5167;#SuperSaturday
5168;#Trump2016
5168;#SuperSaturday
5169;#MakeAmericaGreatAgain
5171;#VoteTrump
5171;#MakeAmericaGreatAgain
5172;#TrumpTrain
5173;#LittleMarco
5177;#KansasCaucus
5177;#MakeAmericaGreatAgain
5177;#Trump2016
5178;#CaucusForTrump
5179;#VoteTrump
5179;#MakeAmericaGreatAgain
5185;#MakeAmericaGreatAgain
5185;#Trump2016https
5186;#MakeAmericaGreatAgain
5186;#VoteTrumphttps
5187;#MakeAmericaGreatAgain
5188;#MakeAmericaGreatAgain
5188;#Trump2016https
5189;#VoteTrumpMI
5191;#MakeAmericaGreatAgain
5191;#Trump2016
5192;#MorningJoe
5194;#Trump2016
5195;#MakeAmericaGreatAgain
5195;#Trump2016https
5196;#GOPDebate
5199;#MakeAmericaGreatAgain
5199;#Trump2016https
5200;#Trump2016
5201;#GOPDebate
5201;#TrumpTrain
5203;#MAGA
5216;#MakeAmericaGreatAgain
5216;#Trump2016
5222;#KenLangone
5222;#NeilCavuto
5222;#Fox
5224;#OnTheRecord
5230;#SuperTuesday
5234;#Trump2016
5234;#SuperTuesday
5235;#Trump2016
5235;#SuperTuesday
5236;#Trump2016
5236;#SuperTuesday
5237;#Trump2016
5237;#SuperTuesday
5238;#Trump2016
5238;#SuperTuesday
5239;#Trump2016
5239;#SuperTuesday
5240;#SuperTuesday
5240;#Trump2016
5241;#VoteTrump
5241;#MakeAmericaGreatAgain
5242;#VoteTrump
5242;#Trump2016
5242;#MakeAmericaGreatAgain
5242;#SuperTuesday
5244;#SuperTuesday
5244;#MakeAmericaGreatAgain
5248;#FAIL
5248;#Politician
5250;#VoteTrump
5250;#SuperTuesday
5251;#VoteTrump
5251;#SuperTuesday
5252;#NASCAR
5252;#Trump2016
5252;#VoteTrump
5255;#VoteTrump
5257;#Trump2016
5258;#MakeAmericaGreatAgain
5258;#Trump2016https
5259;#MakeAmericaGreatAgain
5259;#Trump2016https
5261;#MakeAmericaGreatAgain
5261;#Trump2016https
5264;#Trump2016
5268;#RobotRubio
5282;#MakeAmericaGreatAgain
5285;#AlwaysTrump
5285;#Trump2016
5285;#TrumpTrain
5288;#StopCommonCore
5288;#MakeAmericaGreatAgain
5292;#RogerStone
5299;#VoteTrump
5300;#Trump2016
5303;#MakeAmericaGreatAgain
5303;#Trump2016
5304;#Greta
5307;#MakeAmericaGreatAgain
5308;#Trump2016
5308;#MakeAmericaGreatAgain
5310;#Trump2016
5326;#LoneStarState
5326;#SuperTuesday
5326;#MakeAmericaGreatAgain
5328;#Trump2016
5330;#GOPDebate
5330;#MakeAmericaGreatAgain
5331;#Trump2016
5332;#MakeAmericaGreatAgain
5332;#Trump2016https
5335;#Trump2016
5336;#MakeYoutubeGreatAgain
5336;#Trump2016https
5343;#VoteTrump
5343;#MakeAmericaGreatAgain
5348;#MakeAmericaGreatAgain
5350;#NoLoyalty
5352;#Trump2016
5359;#Trump2016
5365;#Trump2016
5369;#Trump2016
5369;#MakeAmericaGreatAgain@Snapchat
5374;#NVcaucus
5376;#VoteTrumpNV
5376;#NevadaCaucus
5381;#TrumpLV
5382;#NevadaCaucus
5382;#VoteTrumpNV
5390;#NevadaCaucus
5390;#VoteTrumpNVhttps
5391;#VoteTrumpNV
5391;#NevadaCaucus
5392;#Trump2016
5392;#TrumpNV
5396;#VoteTrumpVT
5397;#VoteTrumpMI
5398;#VoteTrumpNC
5399;#VoteTrumpMA
5401;#VoteTrumpIL
5402;#trump2016
5402;#ICYMI
5403;#Hannity
5403;#Trump2016
5410;#BikersForTrump
5410;#VoteTrumpNV
5412;#Trump2016
5419;#VoteTrumpNV
5419;#Trump2016
5422;#VoteTrumpNV
5422;#Trump2016
5429;#Trump2016
5441;#SCPrimary
5441;#MakeAmericaGreatAgain
5442;#WATCH
5444;#fairandbalancedmyass
5447;#Ted
5448;#SouthCarolina
5453;#ObamaCare
5453;#MAKEAMERICAGREATAGAIN
5457;#ObamaCare
5458;#SCPrimary
5458;#VoteTrumpSC
5458;#MakeAmericaGreatAgain
5459;#MakeAmericaGreatAgain
5461;#VoteTrumpSC
5461;#Trump2016
5462;#Trump2016
5462;#VoteTrumpSC
5463;#vaticanwalls
5464;#SCPrimary
5464;#Trump2016
5465;#SCPrimary
5465;#Trump2016
5471;#VoteTrumpSC
5472;#Trump2016
5477;#SCPrimary
5477;#VoteTrumpSC
5477;#Trump2016
5478;#MakeAmericaGreatAgain
5478;#Trump2016
5479;#MakeAmericaGreatAgain
5479;#Trump2016
5486;#POTUS
5486;#Trump2016
5487;#SCPrimary
5494;#Colbert
5494;#LSSC
5495;#MakeAmericaGreatAgain
5495;#Trump2016
5497;#TeamTrump
5497;#MaitnerStrong
5498;#VoteTrumpSC
5499;#MakeAmericaGreatAgain
5502;#VoteTrumpSC
5503;#VoteTrumpSC
5504;#MakeAmericaGreatAgain
5505;#Trump2016
5505;#VoteTrumpSC
5521;#GOPDebate
5523;#GOPDebate
5525;#GOPDebate
5526;#GOPDebate
5530;#Trump
5530;#Ford
5530;#Carrier
5530;#Jobs
5530;#Mexico
5532;#SouthCarolinaPrimary
5533;#Trump2016
5543;#Trump2016
5543;#MakeAmericaGreatAgain
5547;#MakeAmericaGreatAgain
5552;#Trump2016
5556;#MakeAmericaGreatAgain
5567;#MakeAmericaGreatAgain
5567;#Trump2016
5568;#MakeAmericaGreatAgain
5571;#Trump2016
5571;#MakeAmericaGreatAgain
5580;#MakeAmericaGreatAgain
5580;#SCPrimary
5591;#FITN
5591;#NHPrimary
5596;#FITN
5596;#NHPrimary
5596;#VoteTrumpNH
5597;#VoteTrumpNH
5598;#VoteTrumpNH
5598;#MakeAmericaGreatAgain
5598;#FITN
5605;#FITN
5606;#FITN
5606;#NHPrimary
5606;#VoteTrumpNH
5608;#FITN
5608;#VoteTrumpNH
5613;#CommonCore
5614;#FITN
5614;#NHPrimary
5618;#GOPDebate
5618;#SuperBowlSunday
5618;#SB50
5619;#FITN
5619;#NHPrimary
5622;#FITN
5622;#VoteTrumpNH
5628;#GOPDebate
5629;#GOPDebate
5638;#GOPDebate
5639;#GPLFers
5640;#GOPDebate
5642;#MakeAmericaGreatAgain
5642;#TrumpTrain
5648;#FITN
5648;#NHPrimary
5651;#Hannity
5651;#MAKEAMERICAGREATAGAIN
5653;#VoteTrump
5661;#TrumpSupporters
5664;#MakeAmericaGreatAgain
5665;#MakeAmericaGreatAgain
5666;#MakeAmericaGreatAgain
5668;#NewHampshire
5668;#FITN
5668;#VoteTrumpNH
5670;#FITN
5670;#NHPolitics
5670;#Trump2016
5675;#Trump2016
5680;#Trump2016
5682;#MakeAmericaGreatAgain
5682;#VotersSpeak
5683;#MakeAmericaGreatAgain
5683;#FITN
5685;#ObamaCare
5687;#CruzFraud
5696;#FITN
5696;#Trump2016
5699;#TrumpTrain
5713;#CaucusForTrump
5714;#CaucusForTrump
5714;#IACaucus
5716;#CaucusForTrump
5717;#CaucusForTrump
5730;#IACaucus
5730;#CaucusForTrumphttps
5734;#CaucusForTrump
5737;#IACaucus
5737;#CaucusForTrump
5744;#MakeAmericaGreatAgain
5746;#Trump2016
5747;#IACaucus
5747;#Trump2016
5748;#MakeAmericaGreatAgain
5748;#Trump2016https
5751;#GOPDebate
5757;#IACaucus
5757;#MakeAmericaGreatAgain
5757;#GOPDebate
5759;#ThankAVet
5760;#GOPDebate
5766;#Trump4Vets
5767;#Trump2016
5769;#GOPDebate
5770;#MichaelMoore
5770;#FoxNews
5770;#ROGERAILES
5776;#Iowa
5782;#YUGE
5790;#Trump2016
5790;#MakeAmericaGreatAgainhttps
5797;#Trump2016
5797;#MakeAmericaGreatAgain
5798;#GOPDebate
5799;#MakeAmericaGreatAgain
5799;#Trump2016
5801;#Trump2016
5802;#Trump2016
5802;#IACaucus
5804;#GOPdebate
5807;#IACaucus
5807;#MakeAmericaGreatAgain
5809;#Trump2016
5827;#FITN
5827;#Trump2016
5828;#FITN
5831;#FITN
5837;#VoteTrump
5837;#IACaucus
5837;#FITN
5837;#Trump2016
5840;#NewYork
5840;#Jonas
5840;#NewYorkValues
5841;#IACaucus
5841;#Trump2016
5841;#MakeAmericaGreatAgain
5843;#Trump2016
5844;#Trump2016
5844;#MakeAmericaGreatAgain
5848;#WeAreBernie
5848;#WeWantTrump
5848;#makeamericagreatagain
5848;#trump
5849;#With_Cruz_you_lose
5849;#MakeAmericaGreatAgain
5849;#trump2016
5855;#VoteTrump
5856;#MakeAmericaGreatAgain
5858;#Trump2016
5858;#IACaucus
5859;#Trump2016
5862;#AmericaGreatAgain
5864;#Excellent
5871;#Trump2016
5874;#IACaucus
5874;#MakeAmericaGreatAgain
5883;#Trump2016
5883;#VoteTrump
5887;#Trump2016
5887;#RNC
5888;#Trump2016
5890;#POTUS
5896;#Trump2016
5898;#Trump2016
5901;#MakeAmericaGreatAgain
5901;#Trump2016https
5902;#MakeAmericaGreatAgain
5902;#Trump2016
5909;#MaryBrigidMcManamon
5909;#CommonLaw
5909;#NaturalBorn
5909;#TedCruz
5910;#MaryBrigidMcManamon
5910;#Cruz
5912;#laurencetribe
5913;#TedCruz
5913;#LaurenceTribe
5914;#MakeAmericaGreatAgain
5914;#VoteTrump
5915;#TrumpTrain
5918;#Trump2016
5922;#FITN
5922;#IACaucus
5922;#MakeAmericaGreatAgain
5922;#Trump2016
5924;#Trump2016
5925;#Trump2016
5926;#Trump2016
5933;#MakeAmericaGreatAgain
5933;#Trump2016
5934;#VoteTrump
5937;#FITN
5937;#Trump2016
5939;#FITN
5939;#Trump2016
5939;#NHPolitics
5940;#Trump2016
5944;#MakeAmericaGreatAgain
5944;#Trump2016
5949;#Trump2016
5949;#MakeAmericaGreatAgain
5949;#ECONOMY
5956;#Trump2016
5957;#MakeAmericaGreatAgain
5957;#Trump2016
5960;#TeamTrump
5963;#CBNNews
5967;#Trump2016
5968;#Trump2016
5969;#Trump2016
5970;#Obamacare
5974;#Trump2016
5984;#MakeAmericaGreatAgain
5984;#Trump2016https
5998;#HarveyPitt
6000;#GOPDebate
6003;#Trump2016
6006;#VoteTrump
6011;#Trump2016
6015;#FoxNews
6015;#Trump2016
6016;#VoteTrump
6017;#VoteTrump
6017;#IowaCaucus
6019;#VoteTrump
6020;#VoteTrump
6020;#MakeAmericaGreatAgain
6020;#Trump2016https
6023;#VoteTrump
6023;#Trump2016
6023;#IACaucus
6023;#FITN
6023;#IAPolitics
6028;#SOTU
6029;#SOTU
6030;#Trump2016
6031;#IACaucus
6031;#FITN
6034;#Trump2016
6037;#TeamTrump
6043;#Trump2016
6045;#MakeAmericaGreatAgain
6045;#Trump2016
6048;#MakeAmericaGreatAgain
6048;#Trump2016
6051;#GoldenGlobe
6052;#LESM
6052;#Trump2016
6072;#Laurence
6077;#FoxNews
6077;#MakeAmericaGreatAgain
6077;#Trump2016
6084;#Rubio
6084;#Bush
6112;#DavidCameron
6112;#WH
6116;#Trump4President
6124;#Trump2016
